{
	"__ver": "dbui2:77|sysdev:2",
	"_id": "mWNibgSmSSuIQfy7ZWxjNA",
	"css_dependencies": [
		{
			"_disp": "dbui_layout.css",
			"_id": "sdxvmwK7SaCO3rXz_cNLaQ",
			"name": "dbui_layout.css",
			"path": "dbui2"
		},
		{
			"_disp": "dbui_skin.css",
			"_id": "Q9Z0dDY0SeCL5ObnDLv1dw",
			"name": "dbui_skin.css",
			"path": "dbui2"
		}
	],
	"css_dependencies_fs": [
		"bower_components/open-sans-fontface/open-sans.css"
	],
	"js_dependencies": [
	],
	"js_dependencies_fs": [
	],
	"module": {
		"_disp": "noonian.dbui2",
		"_id": "Qajm9_c7TSKoAV1gs5Hu4A",
		"name": "noonian.dbui2",
		"path": "noonian/dbui2"
	},
	"name": "index",
	"path": "dbui2",
	"rolespec": [
	]
}