{
	"__ver": "sys:7|dbui-legacy:1|dbui2:16",
	"_id": "wGwX2SpXRjWE7iLAAQkROQ",
	"doc": "The \"out-of-the-box\" home page.  You are free to modify this page to customize the home, or, alternatively you may create a separate one and modify the Config parameter dbui.homeAction.",
	"key": "dbui.core.oob_home",
	"params": [
	],
	"state_name": "oob_home"
}