{
	"__ver": "dbui2:2|sysdev:34",
	"_id": "7fEk4_v7T0y84_Mq26kAJQ",
	"doc": "Page for managing packages on this instance.\n@todo in development!  This will replace the modal dialog UI that launches via \"Install Package\" button on BusinessObjectPackage list.",
	"key": "dbui.sys.pkg_mgmt",
	"params": [
	],
	"state_name": "sys_pkg_mgmt"
}