{
	"__ver": "sysdev:18",
	"_id": "7nGwcfLlTuq3i4SWODAEjg",
	"doc": "\"In-Development\" tab for CustomPage dbui.sys.pkg_mgmt",
	"module": {
		"_disp": "noonian.dbui2",
		"_id": "Qajm9_c7TSKoAV1gs5Hu4A"
	},
	"name": "ctrl_PackageDev",
	"parameters": [
		"$scope",
		"$rootScope",
		"db",
		"Dbui",
		"NoonWebService",
		"DbuiAlert"
	],
	"path": "dbui2/pkg_mgmt",
	"type": "controller"
}