{
	"__ver": "dbui2:10|sysdev:4",
	"_id": "sTaIkrDvRamUHZIS23BF7Q",
	"doc": "Extends the NoonAction service to add DBUI specifics\n1) invokeAction is called w/ perspective and context bo, in addition to actionObj and argsObj.  Parameters are added depending on action type and provided perspective and context bo\n2) when any action returns object w/ 'message', 'error' or 'warning' properties, alert is rendered in UI via DbuiAlert service\n3) when any action returns object w/ 'action' property, action object is invoked, allowing for chaining behavior (e.g. webservice responding w/ re-direct)",
	"module": {
		"_disp": "noonian.dbui2",
		"_id": "Qajm9_c7TSKoAV1gs5Hu4A"
	},
	"name": "DbuiAction",
	"parameters": [
		"NoonAction",
		"DbuiAlert",
		"$q",
		"$stateParams",
		"$rootScope",
		"$uibModal",
		"$state",
		"$parse",
		"db",
		"NoonAuth",
		"NoonConfig"
	],
	"path": "dbui2/api",
	"type": "factory"
}