{
	"__ver": "dbui2:2",
	"_id": "tvjAONN2TN-6lt0C6dXCvA",
	"doc": "Renders a view of a \"BusinessObject-like\" object according to a perspective.",
	"module": {
		"_disp": "noonian.dbui2",
		"_id": "Qajm9_c7TSKoAV1gs5Hu4A"
	},
	"name": "dbuiObjectViewer",
	"parameters": [
		"$parse",
		"Dbui",
		"NoonI18n",
		"DbuiAction"
	],
	"path": "dbui2/reusable/core",
	"type": "directive"
}