{
	"__ver": "sys:4|dbui-legacy:1|dbui2:2",
	"_id": "Y-CAFkrLQDaUXl3yZAUpyw",
	"key": "sys.dbui.bo.DbuiCustomPage",
	"language": {
		"_disp": "English",
		"_id": "-9vPfv2lEeSFtiimx_V4dw",
		"code": "en"
	},
	"system": true,
	"value": {
		"#params": {
			"name": "Name",
			"type": "Type"
		},
		"body": "Body",
		"container_css_class": "Container CSS Class",
		"controller": "Controller",
		"doc": "Documentation",
		"key": "Key",
		"params": "State Parameters",
		"rolespec": "Rolespec",
		"state_name": "State Name"
	}
}