{
	"__ver": "sys:1|dbui-legacy:1|sysdev:1",
	"_id": "J9SNvBpBQAGYMkbPYRYPrA",
	"key": "sys.dbui.perspective.default.related[AngularModule_module].AngularProvider",
	"system": true,
	"value": {
		"list": {
			"fields": [
				"path",
				"module",
				"name",
				"type",
				"doc"
			],
			"sort": {
				"path": "asc"
			}
		}
	}
}