{
	"__ver": "sys:2|dbui-legacy:1|dbui2:1|sysdev:1",
	"_id": "Oq6WcNJFSomqJf7Q3R_tyA",
	"allow_customize": false,
	"key": "sys.dbui.perspective.*.UiAction",
	"rolespec": [
	],
	"system": true,
	"value": {
		"edit": {
			"layout": [
				"key",
				"doc",
				"function"
			]
		},
		"list": {
			"fields": [
				"key",
				"doc"
			],
			"sort": {
				"key": "asc"
			}
		},
		"view": {
			"layout": [
				"key",
				"doc",
				"function"
			]
		}
	}
}