{
	"__ver": "sys:2|dbui-legacy:1|dbui2:3|sysdev:2",
	"_id": "XlkTgxHAQRSiic10iuV_Ig",
	"allow_customize": false,
	"key": "sys.dbui.perspective.default.CodeModule",
	"rolespec": [
	],
	"system": true,
	"value": {
		"dialog-view": {
			"layout": [
				"code",
				"doc",
				"name",
				"path",
				"type"
			]
		},
		"list": {
			"filter": {
				"path": {
					"$notcontains": "^/?sys"
				}
			}
		}
	}
}