{
	"__ver": "dbui2:4|sys:1|sysdev:1",
	"_id": "M0ragIByRmys387HXKc3Xw",
	"allow_customize": false,
	"key": "sys.dbui.perspective.default.DbuiCustomPage",
	"rolespec": [
	],
	"system": true,
	"value": {
		"dialog-view": {
			"layout": [
				"body",
				"container_css_class",
				"controller",
				"doc",
				"key",
				"params",
				"rolespec",
				"state_name"
			]
		},
		"list": {
			"filter": {
				"key": {
					"$notcontains": "^dbui\\.|^sys\\."
				}
			}
		}
	}
}