{
	"__ver": "dbui2:4|sysdev:1",
	"_id": "rnmUS39uQHe6PMrELULKuA",
	"key": "sys.dbui.perspective.default.DbuiObjectAlert",
	"system": true,
	"value": {
		"edit": {
			"layout": [
				"created_date",
				"roles",
				"user",
				"key",
				"objects",
				"actions",
				"style_class",
				"message"
			]
		},
		"list": {
			"fields": [
				"created_date",
				"key",
				"objects",
				"style_class",
				"roles",
				"user",
				"message"
			]
		},
		"view": {
			"layout": [
				"created_date",
				"roles",
				"user",
				"key",
				"objects",
				"actions",
				"style_class",
				"message"
			]
		}
	}
}