{
	"__ver": "sys:5|dbui-legacy:1|dbui2:4|sysdev:1",
	"_id": "GDzTJ1SERbyhOIKYYkNkNA",
	"allow_customize": false,
	"key": "sys.dbui.perspective.perspectives.Config",
	"rolespec": [
	],
	"system": true,
	"value": {
		"list": {
			"filter": {
				"$or": [
					{
						"key": {
							"$contains": "sys.dbui.perspective"
						}
					},
					{
						"key": {
							"$contains": "sys.dbui.displayoptions"
						}
					}
				],
				"system": {
					"$isfalse": true
				}
			},
			"title": "Perspectives"
		}
	}
}