{
	"__ver": "sys:5|dbui-legacy:1|dbui2:1|sysdev:2",
	"_id": "4oreVV9bQE6POFFq8ruL1Q",
	"allow_customize": true,
	"key": "sys.dbui.perspective.default.BusinessObjectDef",
	"rolespec": [
	],
	"system": true,
	"value": {
		"dialog-view": {
			"layout": [
				"abstract",
				"class_name",
				"definition",
				"doc",
				"superclass",
				"system"
			]
		},
		"list": {
			"filter": {
				"system": {
					"$isfalse": ""
				}
			}
		}
	}
}