{
	"__ver": "sys:3|dbui-legacy:1|sysdev:1",
	"_id": "I5AizP_DTgqHdp3MFvdsrw",
	"allow_customize": false,
	"key": "sys.dbui.perspective.default.ScheduleTrigger#schedule",
	"rolespec": [
	],
	"system": true,
	"value": {
		"edit": {
			"layout": [
				[
					"second",
					"day_of_month"
				],
				[
					"minute",
					"month"
				],
				[
					"hour",
					"day_of_week"
				]
			]
		},
		"view": {
			"layout": [
				"second",
				"minute",
				"hour",
				"day_of_month",
				"month",
				"day_of_week"
			]
		}
	}
}