{
	"__ver": "sys:5|dbui-legacy:1|dbui2:2|sysdev:1",
	"_id": "6zyebkpAS_m3IGJNU3-txQ",
	"allow_customize": false,
	"key": "sys.dbui.perspective.default.WebService",
	"rolespec": [
	],
	"system": true,
	"value": {
		"dialog-view": {
			"layout": [
				"doc",
				"function",
				"path",
				"rolespec"
			]
		},
		"list": {
			"filter": {
				"path": {
					"$notcontains": "^/sys/|^/dbui|^/pkg/"
				}
			}
		}
	}
}