{
	"__ver": "sys:3|dbui-legacy:1|sysdev:3",
	"_id": "0tydbMgIRdudkdXTyXt7qA",
	"allow_customize": false,
	"key": "sys.dbui.perspective.default.RemotePackageRepository",
	"rolespec": [
	],
	"system": true,
	"value": {
		"edit": {
			"layout": [
				{
					"rows": [
						[
							"name",
							"enabled"
						],
						[
							"url"
						],
						[
							"auth"
						]
					]
				}
			]
		},
		"list": {
			"fields": [
				"name",
				"url"
			]
		},
		"view": {
			"layout": [
				"name",
				"url",
				"auth"
			]
		}
	}
}