{
	"__ver": "sys:2|dbui2:6",
	"_id": "LT7gGfGtSX6ruO8MqG-C0w",
	"async_init": false,
	"custom_ng_model": false,
	"doc": "Renders a basic form: text elements for address, city, and zip; a dropdown for states (utilizes Enumeration UsState).\n\n@todo integrate more robust geographical data (e.g. zipcode and state database)",
	"fieldtypes": [
		{
			"_disp": "physical_address",
			"_id": "2RQWYKymQMmfYqEGxXVtoA",
			"name": "physical_address"
		}
	],
	"for_editing": true,
	"for_editing_array": false,
	"for_viewing": false,
	"for_viewing_array": false,
	"key": "dbui.core.physical_address.edit",
	"summary": "Edit physical_address"
}