{
	"__ver": "sys:3|dbui-legacy:2|dbui2:1",
	"_id": "ghqIrx4MT3qrnJwpZ5cHsA",
	"async_init": false,
	"custom_ng_model": false,
	"doc": "Simple input text box that accepts standard hex string (w/ hash prefix), augmented with a decoration that shows the color.  \n\n@todo utilize some fancy color picker component. (probably via addon)",
	"fieldtypes": [
		{
			"_disp": "color",
			"_id": "L0RpjYeuS-uVqxj00KzEZg",
			"name": "color"
		}
	],
	"for_editing": true,
	"for_editing_array": false,
	"for_viewing": false,
	"for_viewing_array": false,
	"key": "dbui.core.color.edit",
	"summary": "Edit color"
}