{
	"__ver": "sys:1|dbui-legacy:2|dbui2:1",
	"_id": "QYBXXHdmQzuWMhjDeBgVLA",
	"async_init": false,
	"custom_ng_model": false,
	"doc": "Renders a span with the number and the label for the unit (TimeDuration enumeration).",
	"fieldtypes": [
		{
			"_disp": "duration",
			"_id": "jOZVJVLOTmGK6Ppf7JNnCw",
			"name": "duration"
		}
	],
	"for_editing": false,
	"for_editing_array": false,
	"for_viewing": true,
	"for_viewing_array": false,
	"key": "dbui.core.duration.view",
	"summary": "View duration"
}